Práctica Final Data Driven Security
…
Grup CC: Toni Jordan Y Joan Dalmau

1 de Junio de 2023

0.1 Carga del
dataset

0.2 Validación del
Dataset de muestras

Se valida que el Dataset parcial tiene las muestra suficientes para
mantener las mismas proporciones que el Dataset global

## # A tibble: 38 × 7
##    Attack      Count_FullData Percentage_FullData Count_Sample Percentage_Sample
##    <chr>                <int>               <dbl>        <int>             <dbl>
##  1 apache2.               794            0.255             794           1.03   
##  2 back.                 1098            0.353             386           0.499  
##  3 buffer_ove…             22            0.00707            22           0.0285 
##  4 ftp_write.               3            0.000965            3           0.00388
##  5 guess_pass…           4367            1.40             1302           1.68   
##  6 httptunnel.            158            0.0508            145           0.188  
##  7 imap.                    1            0.000322            1           0.00129
##  8 ipsweep.               306            0.0984            155           0.201  
##  9 land.                    9            0.00289             9           0.0116 
## 10 loadmodule.              2            0.000643            2           0.00259
## # ℹ 28 more rows
## # ℹ 2 more variables: Difference <dbl>, SignificantlyDifferent <chr>
…
